<?xml version="1.0" encoding="UTF-8" standalone="no"?>
<svg
   xmlns:dc="http://purl.org/dc/elements/1.1/"
   xmlns:cc="http://creativecommons.org/ns#"
   xmlns:rdf="http://www.w3.org/1999/02/22-rdf-syntax-ns#"
   xmlns:svg="http://www.w3.org/2000/svg"
   xmlns="http://www.w3.org/2000/svg"
   xmlns:sodipodi="http://sodipodi.sourceforge.net/DTD/sodipodi-0.dtd"
   xmlns:inkscape="http://www.inkscape.org/namespaces/inkscape"
   inkscape:version="1.0beta2 (2b71d25, 2019-12-03)"
   sodipodi:docname="elec-design-demo-F_Cu-drills.svg"
   id="svg346"
   viewBox="0 0 13240 11400 "
   height="2.8956cm"
   width="3.36296cm"
   version="1.1">
  <metadata
     id="metadata352">
    <rdf:RDF>
      <cc:Work
         rdf:about="">
        <dc:format>image/svg+xml</dc:format>
        <dc:type
           rdf:resource="http://purl.org/dc/dcmitype/StillImage" />
        <dc:title>SVG Picture created as elec-design-demo-F_Cu.svg date 2020/03/11 16:36:41 </dc:title>
      </cc:Work>
    </rdf:RDF>
  </metadata>
  <defs
     id="defs350" />
  <sodipodi:namedview
     inkscape:current-layer="svg346"
     inkscape:window-maximized="1"
     inkscape:window-y="23"
     inkscape:window-x="1680"
     inkscape:cy="54.720002"
     inkscape:cx="63.552002"
     inkscape:zoom="4.6939964"
     showgrid="false"
     id="namedview348"
     inkscape:window-height="675"
     inkscape:window-width="1280"
     inkscape:pageshadow="2"
     inkscape:pageopacity="0"
     guidetolerance="10"
     gridtolerance="10"
     objecttolerance="10"
     borderopacity="1"
     inkscape:document-rotation="0"
     bordercolor="#666666"
     pagecolor="#ffffff" />
  <title
     id="title10">SVG Picture created as elec-design-demo-F_Cu.svg date 2020/03/11 16:36:41 </title>
  <desc
     id="desc12">Picture generated by PCBNEW </desc>
  <g
     id="g14"
     transform="translate(0 0) scale(1 1)"
     style="fill:#000000;fill-opacity:1;stroke:#000000;stroke-opacity:1;stroke-linecap:round;stroke-linejoin:round" />
  <g
     id="g306"
     style="fill:#000000;fill-opacity:0;stroke:#FFFFFF;stroke-width:157.48;stroke-opacity:1;stroke-linecap:round;stroke-linejoin:round" />
  <g
     id="g310"
     style="fill:#000000;fill-opacity:1;stroke:#FFFFFF;stroke-width:0;stroke-opacity:1;stroke-linecap:round;stroke-linejoin:round">
    <circle
       style="fill:#000000"
       id="circle308"
       r="157.48"
       cy="6072.84"
       cx="4271.65" />
  </g>
  <g
     id="g312"
     style="fill:#000000;fill-opacity:1;stroke:#FFFFFF;stroke-width:39.3701;stroke-opacity:1;stroke-linecap:round;stroke-linejoin:round" />
  <g
     id="g316"
     style="fill:#000000;fill-opacity:1;stroke:#FFFFFF;stroke-width:0;stroke-opacity:1;stroke-linecap:round;stroke-linejoin:round">
    <circle
       style="fill:#000000"
       id="circle314"
       r="157.48"
       cy="7112.21"
       cx="5629.92" />
  </g>
  <g
     id="g318"
     style="fill:#000000;fill-opacity:1;stroke:#FFFFFF;stroke-width:39.3701;stroke-opacity:1;stroke-linecap:round;stroke-linejoin:round" />
  <g
     id="g322"
     style="fill:#000000;fill-opacity:1;stroke:#FFFFFF;stroke-width:0;stroke-opacity:1;stroke-linecap:round;stroke-linejoin:round">
    <circle
       style="fill:#000000"
       id="circle320"
       r="157.48"
       cy="4635.83"
       cx="9271.65" />
  </g>
  <g
     id="g324"
     style="fill:#000000;fill-opacity:1;stroke:#FFFFFF;stroke-width:39.3701;stroke-opacity:1;stroke-linecap:round;stroke-linejoin:round" />
  <g
     id="g328"
     style="fill:#000000;fill-opacity:1;stroke:#FFFFFF;stroke-width:0;stroke-opacity:1;stroke-linecap:round;stroke-linejoin:round">
    <circle
       style="fill:#000000"
       id="circle326"
       r="157.48"
       cy="5501.97"
       cx="9094.49" />
  </g>
  <g
     id="g330"
     style="fill:#000000;fill-opacity:1;stroke:#FFFFFF;stroke-width:39.3701;stroke-opacity:1;stroke-linecap:round;stroke-linejoin:round" />
  <g
     id="g334"
     style="fill:#000000;fill-opacity:1;stroke:#FFFFFF;stroke-width:0;stroke-opacity:1;stroke-linecap:round;stroke-linejoin:round">
    <circle
       style="fill:#000000"
       id="circle332"
       r="157.48"
       cy="7253.94"
       cx="4094.48" />
  </g>
  <g
     id="g336"
     style="fill:#000000;fill-opacity:1;stroke:#FFFFFF;stroke-width:39.3701;stroke-opacity:1;stroke-linecap:round;stroke-linejoin:round" />
  <g
     id="g340"
     style="fill:#000000;fill-opacity:1;stroke:#FFFFFF;stroke-width:0;stroke-opacity:1;stroke-linecap:round;stroke-linejoin:round">
    <circle
       style="fill:#000000"
       id="circle338"
       r="157.48"
       cy="4055.12"
       cx="4468.5" />
  </g>
  <g
     id="g342"
     style="fill:#000000;fill-opacity:1;stroke:#FFFFFF;stroke-width:39.3701;stroke-opacity:1;stroke-linecap:round;stroke-linejoin:round" />
  <g
     id="g344"
     style="fill:#000000;fill-opacity:1;stroke:#000000;stroke-width:39.3701;stroke-opacity:1;stroke-linecap:round;stroke-linejoin:round" />
</svg>
