(export (version D)
  (design
    (source /Users/kris/kicad/elec-design-demo/elec-design-demo.sch)
    (date "2020 March 11, Wednesday 16:26:25")
    (tool "Eeschema (5.1.4-0-10_14)")
    (sheet (number 1) (name /) (tstamps /)
      (title_block
        (title)
        (company)
        (rev)
        (date)
        (source elec-design-demo.sch)
        (comment (number 1) (value ""))
        (comment (number 2) (value ""))
        (comment (number 3) (value ""))
        (comment (number 4) (value "")))))
  (components
    (comp (ref U1)
      (value ATtiny412-SS)
      (footprint SMD_Packages:SOIC-8-N)
      (datasheet http://ww1.microchip.com/downloads/en/DeviceDoc/40001911A.pdf)
      (libsource (lib MCU_Microchip_ATtiny) (part ATtiny412-SS) (description "20MHz, 4kB Flash, 256B SRAM, 128B EEPROM, SOIC-8"))
      (sheetpath (names /) (tstamps /))
      (tstamp 5E610575))
    (comp (ref C1)
      (value 1uF)
      (footprint Capacitors_SMD:C_1206_HandSoldering)
      (datasheet ~)
      (libsource (lib Device) (part C) (description "Unpolarized capacitor"))
      (sheetpath (names /) (tstamps /))
      (tstamp 5E610BF0))
    (comp (ref J2)
      (value Conn_01x06_Male)
      (footprint elec-design-demo:FTDI_Header_1x06_Pitch2.54mm)
      (datasheet ~)
      (libsource (lib Connector) (part Conn_01x06_Male) (description "Generic connector, single row, 01x06, script generated (kicad-library-utils/schlib/autogen/connector/)"))
      (sheetpath (names /) (tstamps /))
      (tstamp 5E616D94))
    (comp (ref J1)
      (value Conn_01x02_Male)
      (footprint elec-design-demo:UPDI_Header_1x02_Pitch2.54mm)
      (datasheet ~)
      (libsource (lib Connector) (part Conn_01x02_Male) (description "Generic connector, single row, 01x02, script generated (kicad-library-utils/schlib/autogen/connector/)"))
      (sheetpath (names /) (tstamps /))
      (tstamp 5E61BA6A))
    (comp (ref D2)
      (value LED)
      (footprint LEDs:LED_1206_HandSoldering)
      (datasheet ~)
      (libsource (lib Device) (part LED) (description "Light emitting diode"))
      (sheetpath (names /) (tstamps /))
      (tstamp 5E61D499))
    (comp (ref R2)
      (value 499)
      (footprint Resistors_SMD:R_1206_HandSoldering)
      (datasheet ~)
      (libsource (lib Device) (part R) (description Resistor))
      (sheetpath (names /) (tstamps /))
      (tstamp 5E61DA55))
    (comp (ref SW1)
      (value SW_Push)
      (footprint elec-design-demo:TACTILE_SWITCH_B3S)
      (datasheet ~)
      (libsource (lib Switch) (part SW_Push) (description "Push button switch, generic, two pins"))
      (sheetpath (names /) (tstamps /))
      (tstamp 5E61F87B))
    (comp (ref D1)
      (value PWR_LED)
      (footprint LEDs:LED_1206_HandSoldering)
      (datasheet ~)
      (libsource (lib Device) (part LED) (description "Light emitting diode"))
      (sheetpath (names /) (tstamps /))
      (tstamp 5E623D8F))
    (comp (ref R1)
      (value 499)
      (footprint Resistors_SMD:R_1206_HandSoldering)
      (datasheet ~)
      (libsource (lib Device) (part R) (description Resistor))
      (sheetpath (names /) (tstamps /))
      (tstamp 5E623D95))
    (comp (ref R3)
      (value 10K)
      (footprint Resistors_SMD:R_1206_HandSoldering)
      (datasheet ~)
      (libsource (lib Device) (part R) (description Resistor))
      (sheetpath (names /) (tstamps /))
      (tstamp 5E68F786)))
  (libparts
    (libpart (lib Connector) (part Conn_01x02_Male)
      (description "Generic connector, single row, 01x02, script generated (kicad-library-utils/schlib/autogen/connector/)")
      (docs ~)
      (footprints
        (fp Connector*:*_1x??_*))
      (fields
        (field (name Reference) J)
        (field (name Value) Conn_01x02_Male))
      (pins
        (pin (num 1) (name Pin_1) (type passive))
        (pin (num 2) (name Pin_2) (type passive))))
    (libpart (lib Connector) (part Conn_01x06_Male)
      (description "Generic connector, single row, 01x06, script generated (kicad-library-utils/schlib/autogen/connector/)")
      (docs ~)
      (footprints
        (fp Connector*:*_1x??_*))
      (fields
        (field (name Reference) J)
        (field (name Value) Conn_01x06_Male))
      (pins
        (pin (num 1) (name Pin_1) (type passive))
        (pin (num 2) (name Pin_2) (type passive))
        (pin (num 3) (name Pin_3) (type passive))
        (pin (num 4) (name Pin_4) (type passive))
        (pin (num 5) (name Pin_5) (type passive))
        (pin (num 6) (name Pin_6) (type passive))))
    (libpart (lib Device) (part C)
      (description "Unpolarized capacitor")
      (docs ~)
      (footprints
        (fp C_*))
      (fields
        (field (name Reference) C)
        (field (name Value) C))
      (pins
        (pin (num 1) (name ~) (type passive))
        (pin (num 2) (name ~) (type passive))))
    (libpart (lib Device) (part LED)
      (description "Light emitting diode")
      (docs ~)
      (footprints
        (fp LED*)
        (fp LED_SMD:*)
        (fp LED_THT:*))
      (fields
        (field (name Reference) D)
        (field (name Value) LED))
      (pins
        (pin (num 1) (name K) (type passive))
        (pin (num 2) (name A) (type passive))))
    (libpart (lib Device) (part R)
      (description Resistor)
      (docs ~)
      (footprints
        (fp R_*))
      (fields
        (field (name Reference) R)
        (field (name Value) R))
      (pins
        (pin (num 1) (name ~) (type passive))
        (pin (num 2) (name ~) (type passive))))
    (libpart (lib MCU_Microchip_ATtiny) (part ATtiny202-SS)
      (aliases
        (alias ATtiny402-SS)
        (alias ATtiny212-SS)
        (alias ATtiny412-SS))
      (description "20MHz, 2kB Flash, 128B SRAM, 64B EEPROM, SOIC-8")
      (docs http://ww1.microchip.com/downloads/en/DeviceDoc/ATtiny202-402-AVR-MCU-with-Core-Independent-Peripherals_and-picoPower-40001969A.pdf)
      (footprints
        (fp SOIC*3.9x4.9mm*P1.27mm*))
      (fields
        (field (name Reference) U)
        (field (name Value) ATtiny202-SS)
        (field (name Footprint) Package_SO:SOIC-8_3.9x4.9mm_P1.27mm))
      (pins
        (pin (num 1) (name VCC) (type power_in))
        (pin (num 2) (name PA6) (type 3state))
        (pin (num 3) (name PA7) (type 3state))
        (pin (num 4) (name PA1) (type 3state))
        (pin (num 5) (name PA2) (type 3state))
        (pin (num 6) (name ~RESET~/PA0) (type 3state))
        (pin (num 7) (name PA3) (type 3state))
        (pin (num 8) (name GND) (type power_in))))
    (libpart (lib Switch) (part SW_Push)
      (description "Push button switch, generic, two pins")
      (docs ~)
      (fields
        (field (name Reference) SW)
        (field (name Value) SW_Push))
      (pins
        (pin (num 1) (name 1) (type passive))
        (pin (num 2) (name 2) (type passive)))))
  (libraries
    (library (logical Connector)
      (uri "/Library/Application Support/kicad/library/Connector.lib"))
    (library (logical Device)
      (uri "/Library/Application Support/kicad/library/Device.lib"))
    (library (logical MCU_Microchip_ATtiny)
      (uri "/Library/Application Support/kicad/library/MCU_Microchip_ATtiny.lib"))
    (library (logical Switch)
      (uri "/Library/Application Support/kicad/library/Switch.lib")))
  (nets
    (net (code 1) (name "Net-(U1-Pad3)")
      (node (ref U1) (pin 3)))
    (net (code 2) (name VCC)
      (node (ref U1) (pin 1))
      (node (ref R3) (pin 1))
      (node (ref C1) (pin 1))
      (node (ref D1) (pin 2))
      (node (ref J2) (pin 4)))
    (net (code 3) (name GND)
      (node (ref U1) (pin 8))
      (node (ref C1) (pin 2))
      (node (ref J2) (pin 6))
      (node (ref R1) (pin 2))
      (node (ref SW1) (pin 2))
      (node (ref J1) (pin 1))
      (node (ref R2) (pin 2)))
    (net (code 4) (name "Net-(J2-Pad1)")
      (node (ref J2) (pin 1)))
    (net (code 5) (name /RX)
      (node (ref J2) (pin 2))
      (node (ref U1) (pin 4)))
    (net (code 6) (name /TX)
      (node (ref U1) (pin 5))
      (node (ref J2) (pin 3)))
    (net (code 7) (name "Net-(J2-Pad5)")
      (node (ref J2) (pin 5)))
    (net (code 8) (name /UPDI)
      (node (ref U1) (pin 6))
      (node (ref J1) (pin 2)))
    (net (code 9) (name /LED)
      (node (ref U1) (pin 7))
      (node (ref D2) (pin 2)))
    (net (code 10) (name "Net-(D2-Pad1)")
      (node (ref R2) (pin 1))
      (node (ref D2) (pin 1)))
    (net (code 11) (name "Net-(D1-Pad1)")
      (node (ref D1) (pin 1))
      (node (ref R1) (pin 1)))
    (net (code 13) (name /BUTTON)
      (node (ref SW1) (pin 1))
      (node (ref R3) (pin 2))
      (node (ref U1) (pin 2)))))