EESchema Schematic File Version 4
LIBS:elec-design-demo-cache
EELAYER 30 0
EELAYER END
$Descr A4 11693 8268
encoding utf-8
Sheet 1 1
Title ""
Date ""
Rev ""
Comp ""
Comment1 ""
Comment2 ""
Comment3 ""
Comment4 ""
$EndDescr
$Comp
L MCU_Microchip_ATtiny:ATtiny412-SS U1
U 1 1 5E610575
P 4675 3075
F 0 "U1" H 4146 3121 50  0000 R CNN
F 1 "ATtiny412-SS" H 4146 3030 50  0000 R CNN
F 2 "SMD_Packages:SOIC-8-N" H 4675 3075 50  0001 C CIN
F 3 "http://ww1.microchip.com/downloads/en/DeviceDoc/40001911A.pdf" H 4675 3075 50  0001 C CNN
	1    4675 3075
	1    0    0    -1  
$EndComp
$Comp
L Device:C C1
U 1 1 5E610BF0
P 3450 3075
F 0 "C1" H 3565 3121 50  0000 L CNN
F 1 "1uF" H 3565 3030 50  0000 L CNN
F 2 "Capacitors_SMD:C_1206_HandSoldering" H 3488 2925 50  0001 C CNN
F 3 "~" H 3450 3075 50  0001 C CNN
	1    3450 3075
	1    0    0    -1  
$EndComp
Wire Wire Line
	3450 2925 3450 2475
Wire Wire Line
	3450 2475 4675 2475
Wire Wire Line
	3450 3225 3450 3675
Wire Wire Line
	3450 3675 4675 3675
$Comp
L power:VCC #PWR01
U 1 1 5E614878
P 3450 1850
F 0 "#PWR01" H 3450 1700 50  0001 C CNN
F 1 "VCC" H 3467 2023 50  0000 C CNN
F 2 "" H 3450 1850 50  0001 C CNN
F 3 "" H 3450 1850 50  0001 C CNN
	1    3450 1850
	1    0    0    -1  
$EndComp
$Comp
L power:GND #PWR02
U 1 1 5E615139
P 3450 4350
F 0 "#PWR02" H 3450 4100 50  0001 C CNN
F 1 "GND" H 3455 4177 50  0000 C CNN
F 2 "" H 3450 4350 50  0001 C CNN
F 3 "" H 3450 4350 50  0001 C CNN
	1    3450 4350
	1    0    0    -1  
$EndComp
Connection ~ 3450 2475
Wire Wire Line
	3450 4350 3450 4175
Connection ~ 3450 3675
$Comp
L power:PWR_FLAG #FLG02
U 1 1 5E616484
P 3450 4175
F 0 "#FLG02" H 3450 4250 50  0001 C CNN
F 1 "PWR_FLAG" V 3450 4303 50  0000 L CNN
F 2 "" H 3450 4175 50  0001 C CNN
F 3 "~" H 3450 4175 50  0001 C CNN
	1    3450 4175
	0    1    1    0   
$EndComp
Connection ~ 3450 4175
Wire Wire Line
	3450 4175 3450 3675
$Comp
L Connector:Conn_01x06_Male J2
U 1 1 5E616D94
P 8600 2975
F 0 "J2" H 8572 2857 50  0000 R CNN
F 1 "Conn_01x06_Male" H 8572 2948 50  0000 R CNN
F 2 "elec-design-demo:FTDI_Header_1x06_Pitch2.54mm" H 8600 2975 50  0001 C CNN
F 3 "~" H 8600 2975 50  0001 C CNN
	1    8600 2975
	-1   0    0    1   
$EndComp
NoConn ~ 8400 2775
NoConn ~ 8400 3175
Wire Wire Line
	8400 2675 7375 2675
Wire Wire Line
	8400 2875 7375 2875
Wire Wire Line
	8400 2975 7375 2975
Wire Wire Line
	8400 3075 7375 3075
Text Label 7375 2875 0    50   ~ 0
VCC
Text Label 7375 2675 0    50   ~ 0
GND
Text Label 7375 2975 0    50   ~ 0
TX
Text Label 7375 3075 0    50   ~ 0
RX
Wire Wire Line
	5275 2975 6275 2975
Text Label 6275 2975 2    50   ~ 0
TX
Wire Wire Line
	5275 2875 6275 2875
Text Label 6275 2875 2    50   ~ 0
RX
$Comp
L Connector:Conn_01x02_Male J1
U 1 1 5E61BA6A
P 8575 4025
F 0 "J1" H 8547 3907 50  0000 R CNN
F 1 "Conn_01x02_Male" H 8547 3998 50  0000 R CNN
F 2 "elec-design-demo:UPDI_Header_1x02_Pitch2.54mm" H 8575 4025 50  0001 C CNN
F 3 "~" H 8575 4025 50  0001 C CNN
	1    8575 4025
	-1   0    0    1   
$EndComp
Wire Wire Line
	8375 3925 7400 3925
Wire Wire Line
	8375 4025 7400 4025
Text Label 7400 3925 0    50   ~ 0
UPDI
Text Label 7400 4025 0    50   ~ 0
GND
Wire Wire Line
	5275 2775 6275 2775
Text Label 6275 2775 2    50   ~ 0
UPDI
$Comp
L Device:LED D2
U 1 1 5E61D499
P 6425 2025
F 0 "D2" H 6418 1770 50  0000 C CNN
F 1 "LED" H 6418 1861 50  0000 C CNN
F 2 "LEDs:LED_1206_HandSoldering" H 6425 2025 50  0001 C CNN
F 3 "~" H 6425 2025 50  0001 C CNN
	1    6425 2025
	-1   0    0    1   
$EndComp
$Comp
L Device:R R2
U 1 1 5E61DA55
P 7100 2025
F 0 "R2" V 7307 2025 50  0000 C CNN
F 1 "499" V 7216 2025 50  0000 C CNN
F 2 "Resistors_SMD:R_1206_HandSoldering" V 7030 2025 50  0001 C CNN
F 3 "~" H 7100 2025 50  0001 C CNN
	1    7100 2025
	0    -1   -1   0   
$EndComp
Wire Wire Line
	6575 2025 6950 2025
Wire Wire Line
	6275 2025 5700 2025
Wire Wire Line
	7250 2025 8025 2025
Text Label 5700 2025 0    50   ~ 0
LED
Text Label 8025 2025 2    50   ~ 0
GND
Wire Wire Line
	5275 3075 6275 3075
Text Label 6275 3075 2    50   ~ 0
LED
$Comp
L Switch:SW_Push SW1
U 1 1 5E61F87B
P 6875 4900
F 0 "SW1" H 6875 5185 50  0000 C CNN
F 1 "SW_Push" H 6875 5094 50  0000 C CNN
F 2 "elec-design-demo:TACTILE_SWITCH_B3S" H 6875 5100 50  0001 C CNN
F 3 "~" H 6875 5100 50  0001 C CNN
	1    6875 4900
	1    0    0    -1  
$EndComp
Wire Wire Line
	6675 4900 6375 4900
Text Label 6725 4125 2    50   ~ 0
VCC
Text Label 5725 4900 0    50   ~ 0
BUTTON
Wire Wire Line
	5275 3175 6275 3175
Text Label 6275 3175 2    50   ~ 0
BUTTON
$Comp
L Device:LED D1
U 1 1 5E623D8F
P 6425 1100
F 0 "D1" H 6418 845 50  0000 C CNN
F 1 "PWR_LED" H 6418 936 50  0000 C CNN
F 2 "LEDs:LED_1206_HandSoldering" H 6425 1100 50  0001 C CNN
F 3 "~" H 6425 1100 50  0001 C CNN
	1    6425 1100
	-1   0    0    1   
$EndComp
$Comp
L Device:R R1
U 1 1 5E623D95
P 7100 1100
F 0 "R1" V 7307 1100 50  0000 C CNN
F 1 "499" V 7216 1100 50  0000 C CNN
F 2 "Resistors_SMD:R_1206_HandSoldering" V 7030 1100 50  0001 C CNN
F 3 "~" H 7100 1100 50  0001 C CNN
	1    7100 1100
	0    -1   -1   0   
$EndComp
Wire Wire Line
	6575 1100 6950 1100
Wire Wire Line
	6275 1100 5700 1100
Wire Wire Line
	7250 1100 8025 1100
Text Label 5700 1100 0    50   ~ 0
VCC
Text Label 8025 1100 2    50   ~ 0
GND
Wire Wire Line
	3450 2150 3450 2475
Wire Wire Line
	3450 1850 3450 2150
Connection ~ 3450 2150
$Comp
L power:PWR_FLAG #FLG01
U 1 1 5E61587A
P 3450 2150
F 0 "#FLG01" H 3450 2225 50  0001 C CNN
F 1 "PWR_FLAG" V 3450 2278 50  0000 L CNN
F 2 "" H 3450 2150 50  0001 C CNN
F 3 "~" H 3450 2150 50  0001 C CNN
	1    3450 2150
	0    1    1    0   
$EndComp
NoConn ~ 5275 3275
NoConn ~ 8500 2575
$Comp
L Device:R R3
U 1 1 5E68F786
P 6375 4550
F 0 "R3" H 6445 4596 50  0000 L CNN
F 1 "10K" H 6445 4505 50  0000 L CNN
F 2 "Resistors_SMD:R_1206_HandSoldering" V 6305 4550 50  0001 C CNN
F 3 "~" H 6375 4550 50  0001 C CNN
	1    6375 4550
	1    0    0    -1  
$EndComp
Wire Wire Line
	6375 4700 6375 4900
Connection ~ 6375 4900
Wire Wire Line
	6375 4900 5725 4900
Wire Wire Line
	6375 4400 6375 4125
Wire Wire Line
	6375 4125 6725 4125
Wire Wire Line
	7075 4900 7750 4900
Text Label 7750 4900 2    50   ~ 0
GND
$EndSCHEMATC
